0,5,0,10000,20000,30000,40000,0,219010.8401,374131.1909,483999.3746,561816.4872
0,5,0,10000,20000,30000,40000,0,29760.39027,41525.42503,46176.44075,48015.10487
0,5,0,10000,20000,30000,40000,0,476325.6613,653719.0525,719783.9694,744387.8919
0,5,0,10000,20000,30000,40000,0,471135.0957,699349.1589,809894.2215,863441.3635
0,5,0,10000,20000,30000,40000,0,101623.2967,149060.9691,171204.836,181541.575
0,5,0,10000,20000,30000,40000,0,149190.4989,249143.4262,316108.734,360973.3774
0,5,0,10000,20000,30000,40000,0,333612.6692,478423.7858,541281.8887,568566.6801
0,5,0,10000,20000,30000,40000,0,278602.519,434618.3511,521986.3331,570911.908
0,5,0,10000,20000,30000,40000,0,63628.32749,108675.6027,140567.9544,163146.9472
0,5,0,10000,20000,30000,40000,0,233809.1201,353797.6668,415374.6119,446975.296
0,5,0,10000,20000,30000,40000,0,263545.5157,422399.4662,518149.8246,575864.0402
0,5,0,10000,20000,30000,40000,0,253123.4853,387974.557,459816.2177,498089.7303
0,5,0,10000,20000,30000,40000,0,40133.58103,72610.68627,98891.97834,120159.4622
0,5,0,10000,20000,30000,40000,0,173166.2622,301622.4591,396912.3517,467599.1994
0,5,0,10000,20000,30000,40000,0,218442.0204,357089.6461,445090.8651,500946.236
0,5,0,10000,20000,30000,40000,0,38556.13639,60523.00079,73038.34016,80168.79432
0,5,0,10000,20000,30000,40000,0,193243.6997,279426.0111,317861.3692,335002.668
0,5,0,10000,20000,30000,40000,0,253636.1537,435396.5777,565649.506,658991.1969
0,5,0,10000,20000,30000,40000,0,111225.0396,183503.9021,230473.8469,260996.9574
0,5,0,10000,20000,30000,40000,0,517291.3073,737226.4486,830735.5908,870492.5829
0,5,0,10000,20000,30000,40000,0,4493.096847,7686.677664,9956.595,11569.99545
0,5,0,10000,20000,30000,40000,0,164186.8775,248045.2107,290875.7959,312751.4874
0,5,0,10000,20000,30000,40000,0,13129.98373,25852.60876,38180.51343,50125.94396
0,5,0,10000,20000,30000,40000,0,71155.13656,133841.0603,189065.816,237717.4663
0,5,0,10000,20000,30000,40000,0,519604.9046,723655.4463,803786.76,835254.5884
0,5,0,10000,20000,30000,40000,0,114676.8686,208417.4184,285043.9498,347680.9338
0,5,0,10000,20000,30000,40000,0,489181.3599,726705.3703,842036.125,898035.4448
0,5,0,10000,20000,30000,40000,0,316486.3472,470802.9372,546046.6568,582734.9827
0,5,0,10000,20000,30000,40000,0,339277.4425,484729.8247,547087.0369,573820.3352
0,5,0,10000,20000,30000,40000,0,230542.3415,343703.506,399248.3967,426512.4753
0,5,0,10000,20000,30000,40000,0,17993.95269,35380.43478,52179.9543,68412.32693
0,5,0,10000,20000,30000,40000,0,42736.58672,58860.98004,64944.66805,67240.02633
0,5,0,10000,20000,30000,40000,0,76961.87805,145283.7812,205935.6595,259778.5731
0,5,0,10000,20000,30000,40000,0,71152.05378,136904.3276,197666.6146,253817.6084
0,5,0,10000,20000,30000,40000,0,14260.66154,26856.71119,37982.455,47809.51814
0,5,0,10000,20000,30000,40000,0,40010.98034,63833.01494,78016.35481,86460.93703
0,5,0,10000,20000,30000,40000,0,49948.09727,72928.97257,83502.36091,88367.12518
0,5,0,10000,20000,30000,40000,0,197648.8162,289638.8808,332453.0608,352379.7128
0,5,0,10000,20000,30000,40000,0,67636.95118,115238.9066,148740.5077,172318.4735
0,5,0,10000,20000,30000,40000,0,311415.5671,520765.8824,661502.4388,756113.1313
0,5,0,10000,20000,30000,40000,0,165157.9407,292002.418,389421.418,464241.085
0,5,0,10000,20000,30000,40000,0,82335.91428,146005.2063,195239.8421,233312.3458
0,5,0,10000,20000,30000,40000,0,124397.3006,216738.8482,285285.0415,336167.6695
0,5,0,10000,20000,30000,40000,0,389110.9154,608918.5002,733087.1433,803229.6359
0,5,0,10000,20000,30000,40000,0,166378.2059,241088.9948,274637.2707,289701.8529
0,5,0,10000,20000,30000,40000,0,81107.13704,137083.1813,175715.0162,202376.755
0,5,0,10000,20000,30000,40000,0,299180.7772,495058.4148,623302.1117,707264.9672
0,5,0,10000,20000,30000,40000,0,42351.08466,71290.40331,91065.20177,104577.7056
0,5,0,10000,20000,30000,40000,0,79484.3203,131139.3303,164708.7191,186524.6837
0,5,0,10000,20000,30000,40000,0,113409.5926,190860.9294,243755.1285,279878.4081
0,5,0,10000,20000,30000,40000,0,1948.473826,3807.491645,5581.160454,7273.398695
0,5,0,10000,20000,30000,40000,0,6403.050782,12592.27814,18574.82249,24357.58581
0,5,0,10000,20000,30000,40000,0,10225.99804,18993.34789,26510.11283,32954.67773
0,5,0,10000,20000,30000,40000,0,101190.0921,141689.5791,157898.7595,164386.188
0,5,0,10000,20000,30000,40000,0,513672.267,749681.2675,858116.6491,907937.7659
0,5,0,10000,20000,30000,40000,0,229900.921,354438.8275,421901.3244,458445.9285
0,5,0,10000,20000,30000,40000,0,50896.2361,84620.39429,106966.2283,121772.715
0,5,0,10000,20000,30000,40000,0,384590.6891,579706.0959,678694.5088,728914.561
0,5,0,10000,20000,30000,40000,0,74170.20407,127158.98,165015.2918,192060.6484
0,5,0,10000,20000,30000,40000,0,158762.6147,232559.1718,266861.5286,282806.0621
0,5,0,10000,20000,30000,40000,0,356467.317,513265.5146,582235.8622,612573.6399
0,5,0,10000,20000,30000,40000,0,8703.23399,13647.95932,16457.29531,18053.41405
0,5,0,10000,20000,30000,40000,0,441466.8919,665179.6446,778545.7808,835993.9175
0,5,0,10000,20000,30000,40000,0,6283.716234,12043.46816,17322.94626,22162.19792
0,5,0,10000,20000,30000,40000,0,113777.7852,213048.2327,299661.1136,375230.3421
0,5,0,10000,20000,30000,40000,0,3505.520889,6953.789608,10345.7412,13682.29544
0,5,0,10000,20000,30000,40000,0,20274.27603,39339.84831,57268.77687,74128.82567
0,5,0,10000,20000,30000,40000,0,262148.7592,359485.5177,395626.9993,409046.4588
0,5,0,10000,20000,30000,40000,0,508686.5966,701253.8883,774151.7435,801747.7971
0,5,0,10000,20000,30000,40000,0,555526.4343,793536.4702,895509.6144,939199.0416
0,5,0,10000,20000,30000,40000,0,40032.90931,54884.86987,60394.85494,62439.02516
0,5,0,10000,20000,30000,40000,0,237157.4998,382737.1768,472101.5965,526958.1512
0,5,0,10000,20000,30000,40000,0,94960.53544,161558.3249,208264.7334,241020.9046
0,5,0,10000,20000,30000,40000,0,373622.5544,586214.6835,707180.1147,776009.7351
0,5,0,10000,20000,30000,40000,0,361375.1402,496280.5085,546642.1864,565442.7622
0,5,0,10000,20000,30000,40000,0,49763.77682,77715.436,93415.51547,102234.0437
0,5,0,10000,20000,30000,40000,0,19898.99499,38995.82864,57322.83737,74911.05412
0,5,0,10000,20000,30000,40000,0,84864.14802,140786.734,177637.8153,201921.424
0,5,0,10000,20000,30000,40000,0,332.5375425,664.7142243,996.530437,1327.986572
0,5,0,10000,20000,30000,40000,0,207455.8178,370812.6607,499444.6675,600733.3117
0,5,0,10000,20000,30000,40000,0,289782.8477,440851.6122,519606.3479,560662.5412
0,5,0,10000,20000,30000,40000,0,463872.7837,663653.9347,749695.8619,786752.4771
0,5,0,10000,20000,30000,40000,0,44159.04466,68803.10926,82556.34882,90231.68979
0,5,0,10000,20000,30000,40000,0,129866.8548,241845.5586,338400.0654,421654.9385
0,5,0,10000,20000,30000,40000,0,13568.16093,26621.28754,39178.93005,51259.89655
0,5,0,10000,20000,30000,40000,0,291270.2646,423111.7514,482788.8957,509801.3456
0,5,0,10000,20000,30000,40000,0,1346.998399,2690.692156,4031.089379,5368.198156
0,5,0,10000,20000,30000,40000,0,320541.0288,496159.8938,592378.4212,645094.882
0,5,0,10000,20000,30000,40000,0,225424.2736,344007.1164,406386.7811,439201.1619
0,5,0,10000,20000,30000,40000,0,133107.7788,231090.037,303215.9713,356308.7505
0,5,0,10000,20000,30000,40000,0,136764.342,218170.7741,266626.4394,295468.7734
0,5,0,10000,20000,30000,40000,0,226764.1124,376790.583,476047.6551,541715.8423
0,5,0,10000,20000,30000,40000,0,113396.3422,205608.3054,280593.4945,341570.1659
0,5,0,10000,20000,30000,40000,0,6983.833682,13722.67426,20225.11611,26499.45209
0,5,0,10000,20000,30000,40000,0,412729.375,632341.7518,749197.006,811375.4252
0,5,0,10000,20000,30000,40000,0,601317.9701,827524.3683,912619.6708,944631.1902
0,5,0,10000,20000,30000,40000,0,231680.4744,334850.0652,380792.4972,401251.1134
0,5,0,10000,20000,30000,40000,0,391860.6998,629837.6386,774360.9947,862130.0052
0,5,0,10000,20000,30000,40000,0,348959.2145,567304.474,703924.0283,789407.4625
0,5,0,10000,20000,30000,40000,0,397450.2777,616675.5787,737595.692,804292.7098
0,5,0,10,25,30,70,0,136764.342,218170.7741,266626.4394,295468.7734
0,5,0,10,25,30,70,0,226764.1124,376790.583,476047.6551,541715.8423
0,5,0,10,25,30,70,0,113396.3422,205608.3054,280593.4945,341570.1659
0,5,0,10,25,30,70,0,6983.833682,13722.67426,20225.11611,26499.45209
0,5,0,10,25,30,70,0,412729.375,632341.7518,749197.006,811375.4252
0,5,0,10,25,30,70,0,601317.9701,827524.3683,912619.6708,944631.1902
0,5,0,10,25,30,70,0,231680.4744,334850.0652,380792.4972,401251.1134
0,5,0,10,25,30,70,0,391860.6998,629837.6386,774360.9947,862130.0052
0,5,0,10,25,30,70,0,348959.2145,567304.474,703924.0283,789407.4625
0,5,0,10,25,30,70,0,397450.2777,616675.5787,737595.692,804292.7098
0,5,0,12034,43532,50324,80342,0,13.6764342,21.81707741,26.66264394,29.54687734
0,5,0,12034,43532,50324,80342,0,22.67641124,37.6790583,47.60476551,54.17158423
0,5,0,12034,43532,50324,80342,0,11.33963422,20.56083054,28.05934945,34.15701659
0,5,0,12034,43532,50324,80342,0,0.698383368,1.372267426,2.022511611,2.649945209
0,5,0,12034,43532,50324,80342,0,41.2729375,63.23417518,74.9197006,81.13754252
0,5,0,12034,43532,50324,80342,0,60.13179701,82.75243683,91.26196708,94.46311902
0,5,0,12034,43532,50324,80342,0,23.16804744,33.48500652,38.07924972,40.12511134
0,5,0,12034,43532,50324,80342,0,39.18606998,62.98376386,77.43609947,86.21300052
0,5,0,12034,43532,50324,80342,0,34.89592145,56.7304474,70.39240283,78.94074625
0,5,0,12034,43532,50324,80342,0,39.74502777,61.66755787,73.7595692,80.42927098
0,5,0,1000,20000,30000,80000,0,243.0160332,1844.292012,2235.394878,2552.481844
0,5,0,1000,20000,30000,80000,0,243.0160332,1844.292012,2235.394878,2552.481844
0,5,0,1000,20000,30000,80000,0,243.0160332,1844.292012,2235.394878,2552.481844
0,5,0,1000,20000,30000,80000,0,5837.517944,379710.8385,621010.5501,773864.4013
0,5,0,1000,20000,30000,80000,0,8001.336852,153022.1687,269767.8856,469452.0131
0,5,0,5000,20000,30000,80000,0,9852.036918,12308.97174,13126.5507,15309.37273
0,5,0,5000,20000,30000,80000,0,1653.022175,54925.15716,67339.80117,72302.6262
0,5,0,5000,20000,30000,80000,0,1305.044025,97173.16034,169148.7523,218550.8728
0,5,0,5000,20000,30000,80000,0,10984.045,134507.5713,242457.9247,564262.2896
0,5,0,5000,20000,30000,80000,0,14800.39634,62095.62624,89843.45902,184867.83
0,5,0,5000,20000,30000,80000,0,79993.46931,103658.818,106689.5071,110387.7569
0,5,0,5000,20000,30000,80000,0,1809.929675,317326.3047,442353.9988,477972.3646
0,5,0,100,200,300,400,0,40,120,305,507
0,5,0,100,200,300,400,0,100,105,270,410
0,5,0,100,200,300,400,0,300,800,900,1000
0,5,0,100,200,300,400,0,1000,1200,1700,2000
0,5,0,100,200,300,400,0,10000,12000,13000,13500
0,5,0,100,200,300,400,0,230230,234210,300000,320000
0,5,0,10,20,30,40,0,8,13,46,50
